project files/simulation/qsim/Lab6.msim.vcd
$comment
	File created using the following command:
		vcd file Lab6.msim.vcd -direction
$end
$date
	Fri Dec 03 22:35:07 2021
$end
$version
	ModelSim Version 10.1d
$end
$timescale
	1ps
$end
$scope module CiruitProblem3_vlg_vec_tst $end
$var reg 8 ! A [7:0] $end
$var reg 8 " B [7:0] $end
$var reg 1 # Clock $end
$var reg 1 $ data_in $end
$var reg 1 % FSM_reset $end
$var reg 1 & reset_A $end
$var reg 1 ' reset_B $end
$var wire 1 ( even [0] $end
$var wire 1 ) even [1] $end
$var wire 1 * even [2] $end
$var wire 1 + even [3] $end
$var wire 1 , even [4] $end
$var wire 1 - even [5] $end
$var wire 1 . even [6] $end
$var wire 1 / R1BI [0] $end
$var wire 1 0 R1BI [1] $end
$var wire 1 1 R1BI [2] $end
$var wire 1 2 R1BI [3] $end
$var wire 1 3 R2BI [0] $end
$var wire 1 4 R2BI [1] $end
$var wire 1 5 R2BI [2] $end
$var wire 1 6 R2BI [3] $end
$var wire 1 7 R_first4 [0] $end
$var wire 1 8 R_first4 [1] $end
$var wire 1 9 R_first4 [2] $end
$var wire 1 : R_first4 [3] $end
$var wire 1 ; R_first4 [4] $end
$var wire 1 < R_first4 [5] $end
$var wire 1 = R_first4 [6] $end
$var wire 1 > R_LAST4 [0] $end
$var wire 1 ? R_LAST4 [1] $end
$var wire 1 @ R_LAST4 [2] $end
$var wire 1 A R_LAST4 [3] $end
$var wire 1 B R_LAST4 [4] $end
$var wire 1 C R_LAST4 [5] $end
$var wire 1 D R_LAST4 [6] $end
$var wire 1 E sign [0] $end
$var wire 1 F sign [1] $end
$var wire 1 G sign [2] $end
$var wire 1 H sign [3] $end
$var wire 1 I sign [4] $end
$var wire 1 J sign [5] $end
$var wire 1 K sign [6] $end
$var wire 1 L Student_ID [0] $end
$var wire 1 M Student_ID [1] $end
$var wire 1 N Student_ID [2] $end
$var wire 1 O Student_ID [3] $end
$var wire 1 P Student_ID [4] $end
$var wire 1 Q Student_ID [5] $end
$var wire 1 R Student_ID [6] $end
$var wire 1 S sampler $end
$scope module i1 $end
$var wire 1 T gnd $end
$var wire 1 U vcc $end
$var wire 1 V unknown $end
$var tri1 1 W devclrn $end
$var tri1 1 X devpor $end
$var tri1 1 Y devoe $end
$var wire 1 Z inst|Add3~0_combout $end
$var wire 1 [ inst|Add3~4_combout $end
$var wire 1 \ inst|Add3~6_combout $end
$var wire 1 ] inst|Add1~6_combout $end
$var wire 1 ^ inst|Add2~4_combout $end
$var wire 1 _ inst|Add3~11 $end
$var wire 1 ` inst|Add3~12_combout $end
$var wire 1 a inst|Add3~13 $end
$var wire 1 b inst|Add3~14_combout $end
$var wire 1 c inst|Add1~8_combout $end
$var wire 1 d inst|Add2~8_combout $end
$var wire 1 e inst|Add2~13 $end
$var wire 1 f inst|Add2~14_combout $end
$var wire 1 g inst|Result~0_combout $end
$var wire 1 h inst|Result~7_combout $end
$var wire 1 i inst|Selector8~4_combout $end
$var wire 1 j FSM_reset~combout $end
$var wire 1 k FSM_reset~clkctrl_outclk $end
$var wire 1 l data_in~combout $end
$var wire 1 m inst3|yfsm.s4~regout $end
$var wire 1 n inst3|yfsm.s5~regout $end
$var wire 1 o inst3|yfsm.s6~regout $end
$var wire 1 p inst3|yfsm.s7~feeder_combout $end
$var wire 1 q inst3|yfsm.s7~regout $end
$var wire 1 r inst3|yfsm.s8~regout $end
$var wire 1 s inst3|yfsm.s0~0_combout $end
$var wire 1 t inst3|yfsm.s0~regout $end
$var wire 1 u inst3|yfsm.s1~0_combout $end
$var wire 1 v inst3|yfsm.s1~regout $end
$var wire 1 w inst3|yfsm.s2~regout $end
$var wire 1 x inst3|yfsm.s3~regout $end
$var wire 1 y inst3|WideOr9~0_combout $end
$var wire 1 z Clock~combout $end
$var wire 1 { Clock~clkctrl_outclk $end
$var wire 1 | reset_B~combout $end
$var wire 1 } reset_B~clkctrl_outclk $end
$var wire 1 ~ reset_A~combout $end
$var wire 1 !! reset_A~clkctrl_outclk $end
$var wire 1 "! inst|Add2~1 $end
$var wire 1 #! inst|Add2~3 $end
$var wire 1 $! inst|Add2~5 $end
$var wire 1 %! inst|Add2~6_combout $end
$var wire 1 &! inst|LessThan1~1_cout $end
$var wire 1 '! inst|LessThan1~3_cout $end
$var wire 1 (! inst|LessThan1~5_cout $end
$var wire 1 )! inst|LessThan1~7_cout $end
$var wire 1 *! inst|LessThan1~9_cout $end
$var wire 1 +! inst|LessThan1~11_cout $end
$var wire 1 ,! inst|LessThan1~13_cout $end
$var wire 1 -! inst|LessThan1~14_combout $end
$var wire 1 .! inst|Result[3]~1_combout $end
$var wire 1 /! inst|Add0~1_cout $end
$var wire 1 0! inst|Add0~3 $end
$var wire 1 1! inst|Add0~4_combout $end
$var wire 1 2! inst|LessThan0~0_combout $end
$var wire 1 3! inst|LessThan0~1_combout $end
$var wire 1 4! inst|LessThan0~2_combout $end
$var wire 1 5! inst|Result[3]~2_combout $end
$var wire 1 6! inst|Result[3]~4_combout $end
$var wire 1 7! inst|Selector4~0_combout $end
$var wire 1 8! inst|Selector4~1_combout $end
$var wire 1 9! inst|Result[3]~3_combout $end
$var wire 1 :! inst|Selector4~2_combout $end
$var wire 1 ;! inst|Selector4~3_combout $end
$var wire 1 <! inst|Selector4~4_combout $end
$var wire 1 =! inst|Selector4~5_combout $end
$var wire 1 >! inst|Selector4~6_combout $end
$var wire 1 ?! inst|Result[3]~feeder_combout $end
$var wire 1 @! inst|Result~5_combout $end
$var wire 1 A! inst|Selector5~0_combout $end
$var wire 1 B! inst|Selector5~1_combout $end
$var wire 1 C! inst|Add0~2_combout $end
$var wire 1 D! inst|Add1~1 $end
$var wire 1 E! inst|Add1~3 $end
$var wire 1 F! inst|Add1~4_combout $end
$var wire 1 G! inst|Selector5~2_combout $end
$var wire 1 H! inst|Selector5~3_combout $end
$var wire 1 I! inst|Selector5~4_combout $end
$var wire 1 J! inst|Selector5~5_combout $end
$var wire 1 K! inst|Result[2]~feeder_combout $end
$var wire 1 L! inst|Result~6_combout $end
$var wire 1 M! inst|Add2~2_combout $end
$var wire 1 N! inst|Add3~1 $end
$var wire 1 O! inst|Add3~2_combout $end
$var wire 1 P! inst|Add1~2_combout $end
$var wire 1 Q! inst|Selector6~0_combout $end
$var wire 1 R! inst|Selector6~1_combout $end
$var wire 1 S! inst|Selector6~2_combout $end
$var wire 1 T! inst|Selector6~3_combout $end
$var wire 1 U! inst|Selector6~4_combout $end
$var wire 1 V! inst|Selector6~5_combout $end
$var wire 1 W! inst|Selector6~6_combout $end
$var wire 1 X! inst|Result[1]~feeder_combout $end
$var wire 1 Y! inst|Add2~0_combout $end
$var wire 1 Z! inst|Selector7~0_combout $end
$var wire 1 [! inst|Selector7~1_combout $end
$var wire 1 \! inst|Add1~0_combout $end
$var wire 1 ]! inst|Selector7~2_combout $end
$var wire 1 ^! inst|Selector7~3_combout $end
$var wire 1 _! inst|Selector7~4_combout $end
$var wire 1 `! inst|Selector7~5_combout $end
$var wire 1 a! inst|Result[0]~feeder_combout $end
$var wire 1 b! inst|Result~8_combout $end
$var wire 1 c! inst|Add0~5 $end
$var wire 1 d! inst|Add0~7 $end
$var wire 1 e! inst|Add0~9 $end
$var wire 1 f! inst|Add0~11 $end
$var wire 1 g! inst|Add0~12_combout $end
$var wire 1 h! inst|Add1~5 $end
$var wire 1 i! inst|Add1~7 $end
$var wire 1 j! inst|Add1~9 $end
$var wire 1 k! inst|Add1~11 $end
$var wire 1 l! inst|Add1~13 $end
$var wire 1 m! inst|Add1~14_combout $end
$var wire 1 n! inst|Selector0~0_combout $end
$var wire 1 o! inst|Selector0~1_combout $end
$var wire 1 p! inst|Selector0~2_combout $end
$var wire 1 q! inst|Selector0~3_combout $end
$var wire 1 r! inst|Selector0~4_combout $end
$var wire 1 s! inst|Selector0~5_combout $end
$var wire 1 t! inst|Selector0~6_combout $end
$var wire 1 u! inst|Result[7]~feeder_combout $end
$var wire 1 v! inst|Add2~7 $end
$var wire 1 w! inst|Add2~9 $end
$var wire 1 x! inst|Add2~11 $end
$var wire 1 y! inst|Add2~12_combout $end
$var wire 1 z! inst|Result~9_combout $end
$var wire 1 {! inst|Add1~12_combout $end
$var wire 1 |! inst|Add0~10_combout $end
$var wire 1 }! inst|Selector1~2_combout $end
$var wire 1 ~! inst|Selector1~0_combout $end
$var wire 1 !" inst|Selector1~1_combout $end
$var wire 1 "" inst|Selector1~3_combout $end
$var wire 1 #" inst|Selector1~4_combout $end
$var wire 1 $" inst|Selector1~5_combout $end
$var wire 1 %" inst|Result[6]~feeder_combout $end
$var wire 1 &" inst|Result~10_combout $end
$var wire 1 '" inst|Add2~10_combout $end
$var wire 1 (" inst|Add3~3 $end
$var wire 1 )" inst|Add3~5 $end
$var wire 1 *" inst|Add3~7 $end
$var wire 1 +" inst|Add3~9 $end
$var wire 1 ," inst|Add3~10_combout $end
$var wire 1 -" inst|Add0~8_combout $end
$var wire 1 ." inst|Add1~10_combout $end
$var wire 1 /" inst|Selector2~0_combout $end
$var wire 1 0" inst|Selector2~1_combout $end
$var wire 1 1" inst|Selector2~2_combout $end
$var wire 1 2" inst|Selector2~3_combout $end
$var wire 1 3" inst|Selector2~4_combout $end
$var wire 1 4" inst|Selector2~5_combout $end
$var wire 1 5" inst|Selector2~6_combout $end
$var wire 1 6" inst|Result[5]~feeder_combout $end
$var wire 1 7" inst|Result~11_combout $end
$var wire 1 8" inst|Add3~8_combout $end
$var wire 1 9" inst|Add0~6_combout $end
$var wire 1 :" inst|Selector3~2_combout $end
$var wire 1 ;" inst|Selector3~0_combout $end
$var wire 1 <" inst|Selector3~1_combout $end
$var wire 1 =" inst|Selector3~3_combout $end
$var wire 1 >" inst|Selector3~4_combout $end
$var wire 1 ?" inst|Selector3~5_combout $end
$var wire 1 @" inst|Result[4]~feeder_combout $end
$var wire 1 A" inst6|Mux0~0_combout $end
$var wire 1 B" inst6|Mux1~0_combout $end
$var wire 1 C" inst6|Mux2~0_combout $end
$var wire 1 D" inst6|Mux3~0_combout $end
$var wire 1 E" inst6|Mux4~0_combout $end
$var wire 1 F" inst6|Mux5~0_combout $end
$var wire 1 G" inst6|Mux6~0_combout $end
$var wire 1 H" inst7|Mux0~0_combout $end
$var wire 1 I" inst7|Mux1~0_combout $end
$var wire 1 J" inst7|Mux2~0_combout $end
$var wire 1 K" inst7|Mux3~0_combout $end
$var wire 1 L" inst7|Mux4~0_combout $end
$var wire 1 M" inst7|Mux5~0_combout $end
$var wire 1 N" inst7|Mux6~0_combout $end
$var wire 1 O" inst|Selector8~2_combout $end
$var wire 1 P" inst|Selector8~1_combout $end
$var wire 1 Q" inst|Selector8~0_combout $end
$var wire 1 R" inst|Selector8~3_combout $end
$var wire 1 S" inst|Selector8~5_combout $end
$var wire 1 T" inst|Neg~regout $end
$var wire 1 U" inst3|WideOr9~1_combout $end
$var wire 1 V" inst1|Mux0~0_combout $end
$var wire 1 W" inst1|Mux1~0_combout $end
$var wire 1 X" inst1|Mux4~0_combout $end
$var wire 1 Y" inst1|Mux5~4_combout $end
$var wire 1 Z" inst1|Mux6~0_combout $end
$var wire 1 [" inst3|student_id [3] $end
$var wire 1 \" inst3|student_id [2] $end
$var wire 1 ]" inst3|student_id [1] $end
$var wire 1 ^" inst3|student_id [0] $end
$var wire 1 _" inst|Result [7] $end
$var wire 1 `" inst|Result [6] $end
$var wire 1 a" inst|Result [5] $end
$var wire 1 b" inst|Result [4] $end
$var wire 1 c" inst|Result [3] $end
$var wire 1 d" inst|Result [2] $end
$var wire 1 e" inst|Result [1] $end
$var wire 1 f" inst|Result [0] $end
$var wire 1 g" inst4|Q [7] $end
$var wire 1 h" inst4|Q [6] $end
$var wire 1 i" inst4|Q [5] $end
$var wire 1 j" inst4|Q [4] $end
$var wire 1 k" inst4|Q [3] $end
$var wire 1 l" inst4|Q [2] $end
$var wire 1 m" inst4|Q [1] $end
$var wire 1 n" inst4|Q [0] $end
$var wire 1 o" B~combout [7] $end
$var wire 1 p" B~combout [6] $end
$var wire 1 q" B~combout [5] $end
$var wire 1 r" B~combout [4] $end
$var wire 1 s" B~combout [3] $end
$var wire 1 t" B~combout [2] $end
$var wire 1 u" B~combout [1] $end
$var wire 1 v" B~combout [0] $end
$var wire 1 w" A~combout [7] $end
$var wire 1 x" A~combout [6] $end
$var wire 1 y" A~combout [5] $end
$var wire 1 z" A~combout [4] $end
$var wire 1 {" A~combout [3] $end
$var wire 1 |" A~combout [2] $end
$var wire 1 }" A~combout [1] $end
$var wire 1 ~" A~combout [0] $end
$var wire 1 !# inst5|Q [7] $end
$var wire 1 "# inst5|Q [6] $end
$var wire 1 ## inst5|Q [5] $end
$var wire 1 $# inst5|Q [4] $end
$var wire 1 %# inst5|Q [3] $end
$var wire 1 &# inst5|Q [2] $end
$var wire 1 '# inst5|Q [1] $end
$var wire 1 (# inst5|Q [0] $end
$upscope $end
$upscope $end
$enddefinitions $end
#0
$dumpvars
b10 !
b11 "
1#
1$
0%
1&
1'
1.
0-
1,
0+
1*
0)
0(
02
01
00
0/
06
05
04
03
0=
1<
1;
1:
19
18
17
0D
1C
1B
1A
1@
1?
1>
0K
0J
0I
0H
0G
0F
0E
1R
1Q
0P
1O
1N
0M
1L
xS
0T
1U
xV
1W
1X
1Y
0Z
0[
0\
1]
0^
0_
0`
1a
0b
1c
0d
1e
0f
0g
0h
0i
0j
0k
1l
0m
0n
0o
0p
0q
0r
1s
0t
1u
0v
0w
0x
0y
1z
1{
1|
1}
1~
1!!
1"!
0#!
1$!
0%!
0&!
1'!
0(!
1)!
0*!
1+!
0,!
0-!
0.!
1/!
00!
01!
12!
13!
14!
05!
16!
17!
08!
09!
0:!
0;!
0<!
0=!
0>!
0?!
0@!
0A!
0B!
1C!
0D!
1E!
0F!
0G!
0H!
0I!
0J!
0K!
0L!
0M!
1N!
0O!
1P!
1Q!
0R!
0S!
0T!
0U!
0V!
0W!
0X!
0Y!
0Z!
0[!
1\!
0]!
0^!
0_!
0`!
0a!
0b!
1c!
0d!
1e!
0f!
0g!
0h!
1i!
0j!
1k!
0l!
1m!
1n!
0o!
0p!
0q!
0r!
0s!
0t!
0u!
0v!
1w!
0x!
0y!
0z!
1{!
0|!
0}!
0~!
0!"
0""
0#"
0$"
0%"
0&"
0'"
0("
1)"
0*"
1+"
0,"
0-"
1."
1/"
00"
01"
02"
03"
04"
05"
06"
07"
08"
09"
0:"
0;"
0<"
0="
0>"
0?"
0@"
0A"
0B"
0C"
0D"
0E"
0F"
0G"
0H"
0I"
0J"
0K"
0L"
0M"
0N"
0O"
0P"
0Q"
0R"
0S"
0T"
1U"
1V"
1W"
0X"
0Y"
0Z"
z^"
z]"
1\"
z["
0f"
0e"
0d"
0c"
0b"
0a"
0`"
0_"
0n"
0m"
0l"
0k"
0j"
0i"
0h"
0g"
1v"
1u"
0t"
0s"
0r"
0q"
0p"
0o"
0~"
1}"
0|"
0{"
0z"
0y"
0x"
0w"
0(#
0'#
0&#
0%#
0$#
0##
0"#
0!#
$end
#20000
0#
0z
0{
0S
#40000
1#
1z
1{
1S
1(#
1'#
1m"
1v
1t
1D!
0\!
1&!
1Y!
1h
0N!
1Z
0E!
0P!
0/!
1~!
0Q!
0W"
0U"
1P"
0/"
0n!
19!
07!
1y
1Z"
0\"
0u
1P!
0'!
1("
1O!
1F!
0C!
1!"
1X"
0~!
1[!
1S!
1-
1+
1)
1M
0,
0R
1T!
1(!
0)"
1[
1""
0!"
1^!
1P
1U!
0)!
1*"
1\
1#"
0""
1_!
1V!
1*!
0+"
18"
1$"
0#"
1`!
1W!
0+!
1_
1,"
1%"
0$"
1a!
1X!
1,!
0a
1`
0%"
1-!
1b
#60000
0#
0z
0{
0S
#80000
1#
1z
1{
1S
1f"
1e"
1w
0v
1G"
1F"
1E"
1O"
06!
15!
1Y"
1U"
1/"
1n!
1Q!
09!
17!
0y
12
11
1R"
1i
0^!
0T!
0U!
0X"
0V"
1~!
0[!
0S!
1=
0-
0+
0)
0<
0;
0Q
1,
1S"
0_!
1U!
0V!
1!"
0P
0O
0L
0`!
1V!
0W!
0a!
1W!
0X!
1X!
#100000
0#
0z
0{
0S
#120000
1#
1z
1{
1S
1T"
0f"
1x
0w
0E"
1C"
0Y"
0U"
1Q"
0/"
0n!
0Q!
19!
07!
16!
1y
0P"
0O"
1K
02
1X"
1V"
0R"
0i
0~!
1[!
1S!
1:"
12"
1""
1}!
1q!
1]!
1T!
1G!
1;!
1-
1+
1)
1;
09
1Q
0,
0S"
0!"
1^!
1="
13"
1#"
1r!
0U!
1H!
1<!
1P
1O
1L
1_!
1>"
14"
1$"
1s!
0V!
1I!
1=!
1`!
1?"
15"
1%"
1t!
0W!
1J!
1>!
1a!
1@"
16"
1u!
0X!
1K!
1?!
#140000
0#
0z
0{
0S
#160000
1#
1z
1{
1S
0T"
1b"
1a"
1`"
1_"
1f"
0e"
1d"
1c"
0x
1m
1N"
1K"
1J"
1I"
0C"
1A"
1Y"
1U"
0Q"
1/"
1n!
1Q!
09!
17!
05!
0y
1P"
0K
16
15
14
13
12
01
10
1/
0X"
0V"
1~!
0[!
0S!
0:"
02"
0}!
0q!
0]!
1U!
0G!
0;!
1D
0-
0+
0)
0A
0@
0?
19
07
0Q
1,
1!"
0^!
0T!
0="
03"
0""
0r!
1V!
0H!
0<!
0P
0O
0L
1""
0_!
0U!
0>"
04"
0#"
0s!
1W!
0I!
0=!
1#"
0`!
0V!
0?"
05"
0$"
0t!
1X!
0J!
0>!
1$"
0a!
0W!
0@"
06"
0%"
0u!
0K!
0?!
1%"
0X!
#180000
0#
0z
0{
0S
#200000
1#
1z
1{
1S
0b"
0a"
0_"
0f"
0d"
0c"
1n
0m
1L"
0J"
0I"
1H"
0G"
0F"
0A"
1Q"
10"
0/"
0!"
1o!
0n!
1R!
19!
18!
07!
0P"
06
05
03
02
00
0/
0""
1S!
1!"
0~!
1[!
1Z!
1A!
0=
0B
1@
1?
0>
1<
17
0#"
1T!
1""
0!"
1^!
0$"
1U!
1#"
0""
1_!
0%"
1V!
1$"
0#"
1`!
1W!
1%"
0$"
1a!
1X!
0%"
#220000
0#
0z
0{
0S
#240000
1#
1z
1{
1S
0`"
1f"
1e"
1o
0n
0N"
0L"
0K"
0H"
1G"
1F"
1E"
0Z"
0Y"
1X"
1V"
1O"
1>"
14"
1#"
1s!
1I!
1=!
1.!
1y
1p
0Q"
00"
1/"
0o!
1n!
0Z!
0R!
0A!
09!
08!
17!
04
12
11
1i
0W!
0[!
0S!
1~!
0D
1=
1P
1O
1L
1-
1+
1)
1B
1A
1>
0<
0;
1R
1Q
0,
1S"
0X!
0^!
0T!
1!"
0U!
1""
#260000
0#
0z
0{
0S
#280000
1#
1z
1{
1S
1T"
0e"
1q
0o
0G"
1D"
1A"
1W"
1\"
1Q"
1Y"
0X"
0V"
0O"
0>"
04"
0#"
0s!
0_!
0V!
0I!
0=!
0y
0p
1K
01
0Y"
1V"
0i
1?"
15"
1$"
1t!
0`!
1W!
1J!
1>!
0=
0P
0O
0L
0-
0+
0)
0:
07
0M
0Q
1,
0S"
1@"
16"
1%"
1u!
0a!
1X!
1K!
1?!
1O
1L
1Q
#300000
0#
0z
0{
0S
#320000
1#
1z
1{
1S
0T"
1b"
1a"
1`"
1_"
0f"
1e"
1d"
1c"
1r
0q
1N"
1K"
1J"
1I"
1G"
0F"
0E"
0D"
1C"
0A"
1X"
1R"
1y
0s
0W"
0\"
0Q"
0.!
0K
16
15
14
13
02
11
10
1/
0N
1S"
1Y"
0R"
0?"
05"
0$"
1#"
0t!
0W!
0J!
0>!
1D
1=
1P
1-
1+
1)
0A
0@
0?
1<
1;
1:
09
17
0,
1M
0S"
0@"
06"
0%"
1$"
0u!
0X!
0K!
0?!
0Q
1%"
#340000
0#
0z
0{
0S
#360000
1#
1z
1{
1S
0a"
0`"
0_"
0e"
0d"
0t
0r
0N"
1M"
1L"
0J"
0I"
1H"
0C"
1W"
1\"
1u
0X"
0V"
0y
1s
05
04
03
01
00
1N
0Y"
1V"
0D
0P
0O
0L
0-
0+
0)
0C
0B
1@
1?
0>
19
0M
1,
1O
1L
1Q
#380000
0#
0z
0{
0S
#400000
1#
1z
1{
1S
0b"
1`"
0c"
1v
1t
1N"
0M"
0G"
0W"
0U"
1P"
0/"
0n!
0Q!
19!
07!
1y
1Z"
0\"
0u
06
14
0/
1X"
0~!
1[!
1S!
1D
0=
1-
1+
1)
1C
1M
0,
0R
0!"
1^!
1T!
1P
0""
1_!
1U!
0#"
1`!
1V!
0$"
1a!
1W!
0%"
1X!
#420000
0#
0z
0{
0S
#440000
1#
1z
1{
1S
0`"
1f"
1e"
1w
0v
0N"
0L"
0K"
0H"
1G"
1F"
1E"
1O"
06!
15!
1Y"
1U"
1/"
1n!
1Q!
09!
17!
0y
04
12
11
1R"
1i
0^!
0T!
0U!
0X"
0V"
1~!
0[!
0S!
0D
1=
0-
0+
0)
1B
1A
1>
0<
0;
0Q
1,
1S"
0_!
1U!
0V!
1!"
0P
0O
0L
0`!
1V!
0W!
0a!
1W!
0X!
1X!
#460000
0#
0z
0{
0S
#480000
1#
1z
1{
1S
1T"
0f"
1x
0w
0E"
1C"
0Y"
0U"
1Q"
0/"
0n!
0Q!
19!
07!
16!
1y
0P"
0O"
1K
02
1X"
1V"
0R"
0i
0~!
1[!
1S!
1:"
12"
1""
1}!
1q!
1]!
1T!
1G!
1;!
1-
1+
1)
1;
09
1Q
0,
0S"
0!"
1^!
1="
13"
1#"
1r!
0U!
1H!
1<!
1P
1O
1L
1_!
1>"
14"
1$"
1s!
0V!
1I!
1=!
1`!
1?"
15"
1%"
1t!
0W!
1J!
1>!
1a!
1@"
16"
1u!
0X!
1K!
1?!
#500000
0#
0z
0{
0S
#520000
1#
1z
1{
1S
0T"
1b"
1a"
1`"
1_"
1f"
0e"
1d"
1c"
0x
1m
1N"
1K"
1J"
1I"
0C"
1A"
1Y"
1U"
0Q"
1/"
1n!
1Q!
09!
17!
05!
0y
1P"
0K
16
15
14
13
12
01
10
1/
0X"
0V"
1~!
0[!
0S!
0:"
02"
0}!
0q!
0]!
1U!
0G!
0;!
1D
0-
0+
0)
0A
0@
0?
19
07
0Q
1,
1!"
0^!
0T!
0="
03"
0""
0r!
1V!
0H!
0<!
0P
0O
0L
1""
0_!
0U!
0>"
04"
0#"
0s!
1W!
0I!
0=!
1#"
0`!
0V!
0?"
05"
0$"
0t!
1X!
0J!
0>!
1$"
0a!
0W!
0@"
06"
0%"
0u!
0K!
0?!
1%"
0X!
#540000
0#
0z
0{
0S
#560000
1#
1z
1{
1S
0b"
0a"
0_"
0f"
0d"
0c"
1n
0m
1L"
0J"
0I"
1H"
0G"
0F"
0A"
1Q"
10"
0/"
0!"
1o!
0n!
1R!
19!
18!
07!
0P"
06
05
03
02
00
0/
0""
1S!
1!"
0~!
1[!
1Z!
1A!
0=
0B
1@
1?
0>
1<
17
0#"
1T!
1""
0!"
1^!
0$"
1U!
1#"
0""
1_!
0%"
1V!
1$"
0#"
1`!
1W!
1%"
0$"
1a!
1X!
0%"
#580000
0#
0z
0{
0S
#600000
1#
1z
1{
1S
0`"
1f"
1e"
1o
0n
0N"
0L"
0K"
0H"
1G"
1F"
1E"
0Z"
0Y"
1X"
1V"
1O"
1>"
14"
1#"
1s!
1I!
1=!
1.!
1y
1p
0Q"
00"
1/"
0o!
1n!
0Z!
0R!
0A!
09!
08!
17!
04
12
11
1i
0W!
0[!
0S!
1~!
0D
1=
1P
1O
1L
1-
1+
1)
1B
1A
1>
0<
0;
1R
1Q
0,
1S"
0X!
0^!
0T!
1!"
0U!
1""
#620000
0#
0z
0{
0S
#640000
1#
1z
1{
1S
1T"
0e"
1q
0o
0G"
1D"
1A"
1W"
1\"
1Q"
1Y"
0X"
0V"
0O"
0>"
04"
0#"
0s!
0_!
0V!
0I!
0=!
0y
0p
1K
01
0Y"
1V"
0i
1?"
15"
1$"
1t!
0`!
1W!
1J!
1>!
0=
0P
0O
0L
0-
0+
0)
0:
07
0M
0Q
1,
0S"
1@"
16"
1%"
1u!
0a!
1X!
1K!
1?!
1O
1L
1Q
#660000
0#
0z
0{
0S
#680000
1#
1z
1{
1S
0T"
1b"
1a"
1`"
1_"
0f"
1e"
1d"
1c"
1r
0q
1N"
1K"
1J"
1I"
1G"
0F"
0E"
0D"
1C"
0A"
1X"
1R"
1y
0s
0W"
0\"
0Q"
0.!
0K
16
15
14
13
02
11
10
1/
0N
1S"
1Y"
0R"
0?"
05"
0$"
1#"
0t!
0W!
0J!
0>!
1D
1=
1P
1-
1+
1)
0A
0@
0?
1<
1;
1:
09
17
0,
1M
0S"
0@"
06"
0%"
1$"
0u!
0X!
0K!
0?!
0Q
1%"
#700000
0#
0z
0{
0S
#720000
1#
1z
1{
1S
0a"
0`"
0_"
0e"
0d"
0t
0r
0N"
1M"
1L"
0J"
0I"
1H"
0C"
1W"
1\"
1u
0X"
0V"
0y
1s
05
04
03
01
00
1N
0Y"
1V"
0D
0P
0O
0L
0-
0+
0)
0C
0B
1@
1?
0>
19
0M
1,
1O
1L
1Q
#740000
0#
0z
0{
0S
#760000
1#
1z
1{
1S
0b"
1`"
0c"
1v
1t
1N"
0M"
0G"
0W"
0U"
1P"
0/"
0n!
0Q!
19!
07!
1y
1Z"
0\"
0u
06
14
0/
1X"
0~!
1[!
1S!
1D
0=
1-
1+
1)
1C
1M
0,
0R
0!"
1^!
1T!
1P
0""
1_!
1U!
0#"
1`!
1V!
0$"
1a!
1W!
0%"
1X!
#780000
0#
0z
0{
0S
#800000
1#
1z
1{
1S
0`"
1f"
1e"
1w
0v
0N"
0L"
0K"
0H"
1G"
1F"
1E"
1O"
06!
15!
1Y"
1U"
1/"
1n!
1Q!
09!
17!
0y
04
12
11
1R"
1i
0^!
0T!
0U!
0X"
0V"
1~!
0[!
0S!
0D
1=
0-
0+
0)
1B
1A
1>
0<
0;
0Q
1,
1S"
0_!
1U!
0V!
1!"
0P
0O
0L
0`!
1V!
0W!
0a!
1W!
0X!
1X!
#820000
0#
0z
0{
0S
#840000
1#
1z
1{
1S
1T"
0f"
1x
0w
0E"
1C"
0Y"
0U"
1Q"
0/"
0n!
0Q!
19!
07!
16!
1y
0P"
0O"
1K
02
1X"
1V"
0R"
0i
0~!
1[!
1S!
1:"
12"
1""
1}!
1q!
1]!
1T!
1G!
1;!
1-
1+
1)
1;
09
1Q
0,
0S"
0!"
1^!
1="
13"
1#"
1r!
0U!
1H!
1<!
1P
1O
1L
1_!
1>"
14"
1$"
1s!
0V!
1I!
1=!
1`!
1?"
15"
1%"
1t!
0W!
1J!
1>!
1a!
1@"
16"
1u!
0X!
1K!
1?!
#860000
0#
0z
0{
0S
#880000
1#
1z
1{
1S
0T"
1b"
1a"
1`"
1_"
1f"
0e"
1d"
1c"
0x
1m
1N"
1K"
1J"
1I"
0C"
1A"
1Y"
1U"
0Q"
1/"
1n!
1Q!
09!
17!
05!
0y
1P"
0K
16
15
14
13
12
01
10
1/
0X"
0V"
1~!
0[!
0S!
0:"
02"
0}!
0q!
0]!
1U!
0G!
0;!
1D
0-
0+
0)
0A
0@
0?
19
07
0Q
1,
1!"
0^!
0T!
0="
03"
0""
0r!
1V!
0H!
0<!
0P
0O
0L
1""
0_!
0U!
0>"
04"
0#"
0s!
1W!
0I!
0=!
1#"
0`!
0V!
0?"
05"
0$"
0t!
1X!
0J!
0>!
1$"
0a!
0W!
0@"
06"
0%"
0u!
0K!
0?!
1%"
0X!
#900000
0#
0z
0{
0S
#920000
1#
1z
1{
1S
0b"
0a"
0_"
0f"
0d"
0c"
1n
0m
1L"
0J"
0I"
1H"
0G"
0F"
0A"
1Q"
10"
0/"
0!"
1o!
0n!
1R!
19!
18!
07!
0P"
06
05
03
02
00
0/
0""
1S!
1!"
0~!
1[!
1Z!
1A!
0=
0B
1@
1?
0>
1<
17
0#"
1T!
1""
0!"
1^!
0$"
1U!
1#"
0""
1_!
0%"
1V!
1$"
0#"
1`!
1W!
1%"
0$"
1a!
1X!
0%"
#940000
0#
0z
0{
0S
#960000
1#
1z
1{
1S
0`"
1f"
1e"
1o
0n
0N"
0L"
0K"
0H"
1G"
1F"
1E"
0Z"
0Y"
1X"
1V"
1O"
1>"
14"
1#"
1s!
1I!
1=!
1.!
1y
1p
0Q"
00"
1/"
0o!
1n!
0Z!
0R!
0A!
09!
08!
17!
04
12
11
1i
0W!
0[!
0S!
1~!
0D
1=
1P
1O
1L
1-
1+
1)
1B
1A
1>
0<
0;
1R
1Q
0,
1S"
0X!
0^!
0T!
1!"
0U!
1""
#980000
0#
0z
0{
0S
